<?xml version="1.0" encoding="UTF-8" standalone="no"?>
<!-- Created with Inkscape (http://www.inkscape.org/) -->

<svg
   xmlns:dc="http://purl.org/dc/elements/1.1/"
   xmlns:cc="http://creativecommons.org/ns#"
   xmlns:rdf="http://www.w3.org/1999/02/22-rdf-syntax-ns#"
   xmlns:svg="http://www.w3.org/2000/svg"
   xmlns="http://www.w3.org/2000/svg"
   xmlns:xlink="http://www.w3.org/1999/xlink"
   xmlns:sodipodi="http://sodipodi.sourceforge.net/DTD/sodipodi-0.dtd"
   xmlns:inkscape="http://www.inkscape.org/namespaces/inkscape"
   version="1.1"
   id="svg6240"
   width="128"
   height="128"
   viewBox="0 0 128 128"
   sodipodi:docname="scenery_base.svg"
   enable-background="new"
   inkscape:version="0.92.3 (2405546, 2018-03-11)">
  <metadata
     id="metadata6246">
    <rdf:RDF>
      <cc:Work
         rdf:about="">
        <dc:format>image/svg+xml</dc:format>
        <dc:type
           rdf:resource="http://purl.org/dc/dcmitype/StillImage" />
        <dc:title></dc:title>
      </cc:Work>
    </rdf:RDF>
  </metadata>
  <defs
     id="defs6244">
    <linearGradient
       inkscape:collect="always"
       id="linearGradient8978">
      <stop
         style="stop-color:#3d90d6;stop-opacity:1"
         offset="0"
         id="stop8974" />
      <stop
         style="stop-color:#ffffff;stop-opacity:0.92165899"
         offset="1"
         id="stop8976" />
    </linearGradient>
    <linearGradient
       inkscape:collect="always"
       id="linearGradient8968">
      <stop
         style="stop-color:#010101;stop-opacity:1"
         offset="0"
         id="stop8964" />
      <stop
         style="stop-color:#00c546;stop-opacity:1"
         offset="1"
         id="stop8966" />
    </linearGradient>
    <linearGradient
       inkscape:collect="always"
       id="linearGradient6799">
      <stop
         style="stop-color:#4a9dee;stop-opacity:1"
         offset="0"
         id="stop6795" />
      <stop
         style="stop-color:#99e4ff;stop-opacity:1"
         offset="1"
         id="stop6797" />
    </linearGradient>
    <linearGradient
       inkscape:collect="always"
       xlink:href="#linearGradient6799"
       id="linearGradient6801"
       x1="115"
       y1="61.999949"
       x2="213"
       y2="61.999949"
       gradientUnits="userSpaceOnUse"
       gradientTransform="translate(-100.00029)" />
    <filter
       style="color-interpolation-filters:sRGB;"
       inkscape:label="Blur"
       id="filter6833">
      <feGaussianBlur
         stdDeviation="3 3"
         result="blur"
         id="feGaussianBlur6831" />
    </filter>
    <filter
       inkscape:collect="always"
       style="color-interpolation-filters:sRGB;"
       id="filter6947"
       x="-0.3"
       width="1.6"
       y="-0.5"
       height="1.5"
       inkscape:label="Chalk and Sponge"
       inkscape:menu="Distort"
       inkscape:menu-tooltip="Low turbulence gives sponge look and high turbulence chalk">
      <feGaussianBlur
         inkscape:collect="always"
         stdDeviation="16.280000000000001"
         id="feGaussianBlur6949"
         result="fbSourceGraphic" />
      <feColorMatrix
         result="fbSourceGraphicAlpha"
         in="fbSourceGraphic"
         values="0 0 0 -1 0 0 0 0 -1 0 0 0 0 -1 0 0 0 0 1 0"
         id="feColorMatrix7007" />
      <feTurbulence
         id="feTurbulence7009"
         baseFrequency="0.4"
         type="fractalNoise"
         seed="0"
         numOctaves="5"
         result="result1"
         in="fbSourceGraphic" />
      <feDisplacementMap
         in2="result1"
         id="feDisplacementMap7011"
         xChannelSelector="R"
         yChannelSelector="G"
         scale="30"
         in="fbSourceGraphic" />
    </filter>
    <linearGradient
       inkscape:collect="always"
       xlink:href="#linearGradient8968"
       id="linearGradient8970"
       x1="133.98402"
       y1="96.153084"
       x2="142.31447"
       y2="60.869656"
       gradientUnits="userSpaceOnUse"
       gradientTransform="translate(-100.00029)" />
    <linearGradient
       inkscape:collect="always"
       xlink:href="#linearGradient8978"
       id="linearGradient8980"
       x1="175.65012"
       y1="77.375946"
       x2="175.2666"
       y2="59.158958"
       gradientUnits="userSpaceOnUse"
       gradientTransform="translate(-100.00029)" />
    <clipPath
       clipPathUnits="userSpaceOnUse"
       id="clipPath9237">
      <rect
         style="opacity:1;fill:#ff00ff;fill-opacity:1;stroke:none;stroke-width:6.53927231;stroke-linecap:round;stroke-linejoin:miter;stroke-miterlimit:4;stroke-dasharray:none;stroke-opacity:1"
         id="rect9239"
         width="98"
         height="70"
         x="14.999712"
         y="26.999949" />
    </clipPath>
  </defs>
  <sodipodi:namedview
     pagecolor="#ffffff"
     bordercolor="#666666"
     borderopacity="1"
     objecttolerance="10"
     gridtolerance="10"
     guidetolerance="10"
     inkscape:pageopacity="0"
     inkscape:pageshadow="2"
     inkscape:window-width="1853"
     inkscape:window-height="1025"
     id="namedview6242"
     showgrid="false"
     inkscape:zoom="5.2149125"
     inkscape:cx="57.10683"
     inkscape:cy="82.188178"
     inkscape:window-x="67"
     inkscape:window-y="27"
     inkscape:window-maximized="1"
     inkscape:current-layer="svg6240" />
  <g
     id="g9235"
     clip-path="url(#clipPath9237)">
    <rect
       inkscape:label="#bg"
       y="26.999949"
       x="14.999712"
       height="70"
       width="98"
       id="bg"
       style="opacity:1;fill:url(#linearGradient6801);fill-opacity:1;stroke:none;stroke-width:7.67843485;stroke-linecap:round;stroke-linejoin:miter;stroke-miterlimit:4;stroke-dasharray:none;stroke-opacity:1" />
    <path
       sodipodi:nodetypes="ccsssssssccc"
       inkscape:connector-curvature="0"
       id="clouds"
       d="m 13.711934,64.33642 c 0,0 -4.0269095,-7.862069 -1.15054,-11.505467 2.87636,-3.643397 22.05215,-8.629099 27.22961,10e-7 5.17745,8.629099 8.62909,2.301093 11.3137,1.917577 2.68461,-0.383515 11.31371,9.587889 21.28512,8.053827 9.9714,-1.534062 13.23128,-6.328007 4.21867,-12.656013 -9.01262,-6.328007 -9.20438,-13.998317 1.3423,-18.408746 10.54668,-4.410429 24.353236,-0.575273 27.421356,8.820857 3.06813,9.396131 3.45164,13.231287 6.32801,13.998318 2.87637,0.767031 1.15055,23.777963 1.15055,23.777963 L 11.602604,74.499581 Z"
       style="fill:#fdfeff;fill-opacity:1;stroke:none;stroke-width:1px;stroke-linecap:butt;stroke-linejoin:miter;stroke-opacity:1;filter:url(#filter6947)" />
    <path
       sodipodi:nodetypes="ccsssssssccc"
       inkscape:connector-curvature="0"
       id="clouds-6"
       d="m 16.370212,65.152707 c 0,0 -4.02691,-7.862069 -1.15054,-11.505467 2.87636,-3.643397 22.05215,-8.629099 27.22961,1e-6 5.17745,8.629099 8.62909,2.301093 11.3137,1.917577 2.68461,-0.383515 11.31371,9.587889 21.28512,8.053827 9.97139,-1.534062 13.23127,-6.328007 4.21867,-12.656013 -9.01262,-6.328007 -9.20438,-13.998317 1.3423,-18.408746 10.54667,-4.410429 24.353228,-0.575273 27.421348,8.820857 3.06813,9.396131 3.45164,13.231287 6.32801,13.998318 2.87637,0.767031 1.15055,23.777963 1.15055,23.777963 L 14.260882,75.315868 Z"
       style="fill:#fdfeff;fill-opacity:1;stroke:none;stroke-width:1px;stroke-linecap:butt;stroke-linejoin:miter;stroke-opacity:1;filter:url(#filter6833)" />
    <path
       inkscape:connector-curvature="0"
       id="path8972"
       d="m 75.266312,59.15896 -15.72413,17.2582 36.24221,1.534062 z"
       style="fill:url(#linearGradient8980);fill-opacity:1;stroke:none;stroke-width:1px;stroke-linecap:butt;stroke-linejoin:miter;stroke-opacity:1" />
    <path
       sodipodi:nodetypes="caccscccc"
       inkscape:connector-curvature="0"
       id="path7437"
       d="m 14.999712,60.575049 c 0,0 6.91348,-3.92425 10.57409,-3.381848 4.70229,0.696751 7.16482,1.835811 11.73976,8.096364 7.29485,0.171822 17.05914,2.205698 19.54401,7.675955 7.09503,-0.767031 35.47518,4.602186 45.063068,2.301093 9.58789,-2.301093 10.9302,3.068124 10.9302,3.068124 l 0.0302,5.055094 -97.881328,-0.949153 z"
       style="fill:url(#linearGradient8970);fill-opacity:1;stroke:none;stroke-width:1px;stroke-linecap:butt;stroke-linejoin:miter;stroke-opacity:1" />
  </g>
</svg>
